{
  "name": "lang-he",
  "title": "Hebrew [Core]",
  "version": "0.8.7",
  "minimumCoreVersion": "0.8.0",
  "compatibleCoreVersion": "0.8.99",
  "author": [
    "Hagai M. Gumpert",
    "Omer G. Yoel",
    "Damian Hoffman",
    "Harel Azarzar",
    "Oded Arbel",
    "Dror Rapaport"],
  "description": "Hebrew language support for Foundry VTT",
  "languages": [
    {
      "lang": "he",
      "name": "עברית (Hebrew)",
      "path": "he.json"
    }
  ],
  "packs": [],
  "scripts": [],
  "styles": [
    "style.css"
  ],
  "coreTranslation": true,
  "url": "https://gitlab.com/foundry-vtt-hebrew/foundryvtt-lang-he",
  "manifest": "https://gitlab.com/foundry-vtt-hebrew/foundryvtt-lang-he/-/raw/main/module.json",
  "download": "https://gitlab.com/foundry-vtt-hebrew/foundryvtt-lang-he/-/archive/main/foundryvtt-lang-he-main.zip",
  "bugs": "https://gitlab.com/foundry-vtt-hebrew/foundryvtt-lang-he/-/issues",
  "readme": "https://gitlab.com/foundry-vtt-hebrew/foundryvtt-lang-he/-/raw/master/README.md"
}
